…
    ## /Library/Frameworks/R.framework/Versions/3.4/Resources/library

``` r
  ## if you have time to do more ...
  
  ## is every package in .Library either base or recommended?
  ## study package naming style (all lower case, contains '.', etc)
  pack %>% 
    select(Package)
```

    ## # A tibble: 144 x 1
    ##    Package   
    ##    <chr>     
    ##  1 abind     
    ##  2 assertthat
    ##  3 backports 
    ##  4 base      
    ##  5 base64enc 
    ##  6 BH        
    ##  7 bindr     
    ##  8 bindrcpp  
    ##  9 bitops    
    ## 10 boot      
    ## # ... with 134 more rows
…
